     ####
######  ########
#   #  0#      ####
##  # ####  ##    #
 ##      #   #    #
  ##  #  ######   #####
 ##           #       #
 ##  ####         # ###
  ##  X#     ###### #
  ###### #####   ## ##
     0 #         #   #
    ## ######    #   #
    #       ######   ####
    #####               #
        ##0##############